<svg width="33" height="26" viewBox="0 0 33 26" fill="none" xmlns="http://www.w3.org/2000/svg">
<g opacity="0.5">
<path fill-rule="evenodd" clip-rule="evenodd" d="M4.78533 1.04877H28.1762C30.2643 1.04877 31.9616 2.77885 31.9552 4.89917V21.1268C31.9552 23.2471 30.2579 24.9707 28.1698 24.9707H4.78533C2.69731 24.9707 1 23.2471 1 21.1268V4.89267C1 2.77234 2.69731 1.04877 4.78533 1.04877ZM28.1762 23.2146C29.3099 23.2146 30.2322 22.278 30.2322 21.1268H30.2258V4.89917C30.2258 3.74795 29.3035 2.81137 28.1698 2.81137H4.78533C3.65165 2.81137 2.72934 3.74795 2.72934 4.89917V21.1268C2.72934 22.278 3.65165 23.2146 4.78533 23.2146H28.1762Z" fill="white"/>
<path d="M31.9552 4.89917L31.8052 4.89872V4.89917H31.9552ZM30.2322 21.1268H30.3822V20.9768H30.2322V21.1268ZM30.2258 21.1268H30.0758V21.2768H30.2258V21.1268ZM28.1762 0.898767H4.78533V1.19877H28.1762V0.898767ZM32.1052 4.89963C32.1118 2.69853 30.3495 0.898767 28.1762 0.898767V1.19877C30.179 1.19877 31.8113 2.85916 31.8052 4.89872L32.1052 4.89963ZM32.1052 21.1268V4.89917H31.8052V21.1268H32.1052ZM28.1698 25.1207C30.3429 25.1207 32.1052 23.3278 32.1052 21.1268H31.8052C31.8052 23.1665 30.1728 24.8207 28.1698 24.8207V25.1207ZM4.78533 25.1207H28.1698V24.8207H4.78533V25.1207ZM0.85 21.1268C0.85 23.3278 2.61231 25.1207 4.78533 25.1207V24.8207C2.78232 24.8207 1.15 23.1665 1.15 21.1268H0.85ZM0.85 4.89267V21.1268H1.15V4.89267H0.85ZM4.78533 0.898767C2.61231 0.898767 0.85 2.69168 0.85 4.89267H1.15C1.15 2.85301 2.78232 1.19877 4.78533 1.19877V0.898767ZM30.0822 21.1268C30.0822 22.1974 29.2249 23.0646 28.1762 23.0646V23.3646C29.3949 23.3646 30.3822 22.3587 30.3822 21.1268H30.0822ZM30.2258 21.2768H30.2322V20.9768H30.2258V21.2768ZM30.0758 4.89917V21.1268H30.3758V4.89917H30.0758ZM28.1698 2.96137C29.2185 2.96137 30.0758 3.82862 30.0758 4.89917H30.3758C30.3758 3.66729 29.3885 2.66137 28.1698 2.66137V2.96137ZM4.78533 2.96137H28.1698V2.66137H4.78533V2.96137ZM2.87934 4.89917C2.87934 3.82862 3.73666 2.96137 4.78533 2.96137V2.66137C3.56665 2.66137 2.57934 3.66729 2.57934 4.89917H2.87934ZM2.87934 21.1268V4.89917H2.57934V21.1268H2.87934ZM4.78533 23.0646C3.73666 23.0646 2.87934 22.1974 2.87934 21.1268H2.57934C2.57934 22.3587 3.56665 23.3646 4.78533 23.3646V23.0646ZM28.1762 23.0646H4.78533V23.3646H28.1762V23.0646Z" fill="#6FC99C"/>
<path d="M20.5223 12.8082L28.093 5.91385C28.4453 5.58865 28.4773 5.0358 28.157 4.67157C27.8368 4.31385 27.2924 4.28133 26.9337 4.60653L16.4936 14.122L14.4568 12.2748C14.4504 12.2683 14.444 12.2618 14.444 12.2553C14.3992 12.2098 14.3543 12.1708 14.3031 12.1317L6.01509 4.60003C5.65641 4.27483 5.11199 4.30735 4.79174 4.67157C4.47149 5.0358 4.50352 5.58865 4.8622 5.91385L12.5225 12.8667L4.89422 20.1187C4.54835 20.4504 4.52914 21.0033 4.85579 21.361C5.02872 21.5431 5.2593 21.6407 5.48988 21.6407C5.70125 21.6407 5.91261 21.5626 6.07914 21.4065L13.8227 14.0504L15.9236 15.9561C16.0901 16.1057 16.295 16.1773 16.5 16.1773C16.705 16.1773 16.9163 16.0992 17.0765 15.9496L19.2349 13.9854L26.9337 21.413C27.1002 21.5756 27.318 21.6537 27.5293 21.6537C27.7599 21.6537 27.9841 21.5626 28.157 21.3805C28.4837 21.0293 28.4709 20.4699 28.125 20.1382L20.5223 12.8082Z" fill="white" stroke="#6FC99C" stroke-width="0.3"/>
</g>
</svg>
